Easily view your microtitre plate data
================

    ## # A tibble: 96 x 3
    ##    well  drug          conc
    ##    <chr> <chr>        <dbl>
    ##  1 A01   aclarubicin    128
    ##  2 A02   amrubicin      128
    ##  3 A03   daunorubicin   128
    ##  4 A04   doxorubicin    128
    ##  5 A05   epirubicin     128
    ##  6 A06   idarubicin     128
    ##  7 A07   mitoxantrone   128
    ##  8 A08   pirarubicin    128
    ##  9 A09   pixantrone     128
    ## 10 A10   valrubicin     128
    ## # … with 86 more rows
…
